[
  { "name": "Amazon", "website": "https://www.amazon.com/", "wikipedia_link": "https://en.wikipedia.org/wiki/Amazon_(company)", "country": "USA", "description": "Amazon.com, Inc. is an American multinational technology company based in Seattle that focuses on e-commerce, cloud computing, digital streaming, and artificial intelligence. It is considered one of the Big Four tech companies, along with Google, Apple, and Facebook. Amazon is known for its disruption of well-established industries through technological innovation and mass scale. It is the world's largest online marketplace, AI assistant provider, and cloud computing platform as measured by revenue and market capitalization. Amazon is the largest Internet company by revenue in the world. It is the second largest private employer in the United States and one of the world's most valuable companies." },
  { "name": "Cloudflare", "website": "https://www.cloudflare.com/", "wikipedia_link": "https://en.wikipedia.org/wiki/Cloudflare", "country": "USA", "description": "Cloudflare, Inc. is an American web-infrastructure and website-security company, providing content-delivery-network services, DDoS mitigation, Internet security, and distributed domain-name-server services. Cloudflare's services sit between a website's visitor and the Cloudflare user's hosting provider, acting as a reverse proxy for websites. Cloudflare's headquarters are in San Francisco, California, with additional offices in Lisbon, London, Singapore, Munich, San Jose, Champaign, Illinois, Austin, New York City and Washington, D.C." },
  { "name": "Microsoft Corporation", "website": "https://www.microsoft.com/", "wikipedia_link": "https://en.wikipedia.org/wiki/Microsoft", "country": "USA", "description": "Microsoft Corporation is an American multinational technology company with headquarters in Redmond, Washington. It develops, manufactures, licenses, supports, and sells computer software, consumer electronics, personal computers, and related services. Its best known software products are the Microsoft Windows line of operating systems, the Microsoft Office suite, and the Internet Explorer and Edge web browsers. Its flagship hardware products are the Xbox video game consoles and the Microsoft Surface lineup of touchscreen personal computers." },
  { "name": "Oracle Corporation", "website": "https://www.oracle.com/", "wikipedia_link": "https://en.wikipedia.org/wiki/Oracle_Corporation", "country": "USA", "description": "Oracle Corporation is an American multinational computer technology corporation headquartered in Redwood Shores, California. The company sells database software and technology, cloud engineered systems, and enterprise software products—particularly its own brands of database management systems. In 2019, Oracle was the second-largest software company by revenue and market capitalization. The company also develops and builds tools for database development and systems of middle-tier software, enterprise resource planning (ERP) software, Human Capital Management (HCM) software, customer relationship management (CRM) software, and supply chain management (SCM) software." }
]
